{
  "EDITOR_STATE": {
    "allProjectFiles": {
      "8af2f916-bfb6-4a63-aec2-362f0beaf8ec": {
        "id": "8af2f916-bfb6-4a63-aec2-362f0beaf8ec",
        "parent": null,
        "name": "induuuupython2-7.py",
        "type": "PYTHON_LAMBDA",
        "isDirectory": false,
        "children": [],
        "isRemovable": true,
        "filePath": "induuuupython2-7.py",
        "cursor": {
          "lineNumber": 1,
          "column": 1
        },
        "config": {
          "runtime": "python3.8",
          "handler": "handler",
          "timeout": 60,
          "memory": 128,
          "layers": [],
          "name": "induuuupython27"
        },
        "triggers": [
          {
            "resourceName": "apigusEast1indu207pythn5indunilqatstany",
            "config": {}
          }
        ]
      }
    },
    "openFiles": [
      "8af2f916-bfb6-4a63-aec2-362f0beaf8ec"
    ],
    "currentFileId": "8af2f916-bfb6-4a63-aec2-362f0beaf8ec",
    "resources": {
      "s3indu207python5": {
        "name": "s3indu207python5",
        "type": "S3",
        "config": {
          "mode": 0,
          "bucket": {
            "region": "us-east-1",
            "name": "indu207python5"
          }
        }
      },
      "apigusEast1indu207pythn5indunilqatstany": {
        "name": "apigusEast1indu207pythn5indunilqatstany",
        "type": "API_GATEWAY",
        "config": {
          "selectedRegion": "us-east-1",
          "apiType": 1,
          "apiMode": 0,
          "apiName": "indu207pythn5",
          "endpointType": "EDGE",
          "resourceMode": 0,
          "resourceName": "indunil/qa/tst",
          "resourcePath": "/indunil/qa/tst",
          "restMethod": "ANY",
          "proxyIntegration": false,
          "enableCORS": false,
          "stageMode": 0,
          "stageName": "test123",
          "mode": 0
        }
      }
    },
    "customTemplate": {
      "syntax": "JSON",
      "overrideDefault": false,
      "dialect": null,
      "definitions": null
    },
    "envVariables": [
      {
        "lambdaId": "all",
        "varKey": "SIGMA_AWS_ACC_ID",
        "varValue": null,
        "shouldPersist": false,
        "displayOnly": false,
        "editable": false
      }
    ],
    "packageJSON": {
      "dependencies": {
        "boto3": {
          "name": "boto3",
          "language": "python",
          "version": "1.12.27",
          "dev": true,
          "notRemovable": false
        }
      }
    }
  },
  "PROJECT_META": {
    "sigmaVersion": "1.4.1.4",
    "projectName": "induuuupython2-7",
    "projectDescription": "",
    "projectVersion": "1.0.0",
    "projectRegion": "us-east-1",
    "platform": "AWS",
    "language": "python",
    "platformRegions": {},
    "lastSave": 1596612741229
  },
  "VCS_STATE": {
    "provider": "BitBucket",
    "repo": {
      "name": "induuuupython2-7",
      "url": "https://bitbucket.org/Indunil1992/induuuupython2-7"
    }
  }
}